10 Proceso Electoral 2021 – Ingresos de Legisladores
…
Mostrar el Código

library(readxl)
library(reactable)
options(scipen=999)
options(digits=2)

Mostrar el Código

dipfed2021 <- read_excel("C:/Users/Eduardo/Documents/PC/SECCION1/DOCS/Tesis/FEDERAL/diputaciones 2021.xlsx")
dipfed2021

# A tibble: 300 × 27
   ID_ESTADO NOMBRE_ESTADO  ID_DISTRITO_FEDERAL CABECERA_DISTRITAL_F…¹ SECCIONES
       <dbl> <chr>                        <dbl> <chr>                      <dbl>
 1         1 AGUASCALIENTES                   1 JESUS MARIA                  148
 2         1 AGUASCALIENTES                   2 AGUASCALIENTES               201
 3         1 AGUASCALIENTES                   3 AGUASCALIENTES               273
 4         2 BAJA CALIFORN…                   1 MEXICALI                     224
 5         2 BAJA CALIFORN…                   2 MEXICALI                     278
 6         2 BAJA CALIFORN…                   3 ENSENADA                     225
 7         2 BAJA CALIFORN…                   4 TIJUANA                      359
 8         2 BAJA CALIFORN…                   5 TIJUANA                      222
 9         2 BAJA CALIFORN…                   6 TIJUANA                      286
10         2 BAJA CALIFORN…                   7 MEXICALI                     167
# ℹ 290 more rows
# ℹ abbreviated name: ¹​CABECERA_DISTRITAL_FEDERAL
# ℹ 22 more variables: CASILLAS <dbl>, PAN <dbl>, PRI <dbl>, PRD <dbl>,
#   PVEM <dbl>, PT <dbl>, MC <dbl>, MORENA <dbl>, PES <dbl>, RSP <dbl>,
#   FXM <dbl>, CAND_IND1 <dbl>, CAND_IND2 <dbl>, CAND_IND3 <dbl>,
#   NUM_VOTOS_CAN_NREG <dbl>, NUM_VOTOS_NULOS <dbl>, TOTAL_VOTOS <dbl>,
#   LISTA_NOMINAL <dbl>, TRIBUNAL <chr>, JUICIO <chr>, OBSERVACIONES <lgl>, …
…
Mostrar el Código

dipfed2021_1_f <- dipfed2021_1 %>%
    left_join(suma_F2021, by = c("ID_ESTADO", "NOMBRE_ESTADO"))

reactable(dipfed2021_1_f)

Mostrar el Código

dipfed2021_1_f <- dipfed2021_1_f%>%
    mutate(Proporcion= (Votos/Votos1)*(100))

dipfed2021_1_f

# A tibble: 320 × 9
   ID_ESTADO NOMBRE_ESTADO  Partido  Votos LISTA_NOMINAL TOTAL_VOTOS
       <dbl> <chr>          <chr>    <dbl>         <dbl>       <dbl>
 1         1 AGUASCALIENTES FXM      15180       1017411      512428
 2         1 AGUASCALIENTES MC       19906       1017411      512428
 3         1 AGUASCALIENTES MORENA  128176       1017411      512428
 4         1 AGUASCALIENTES PAN     228256       1017411      512428
 5         1 AGUASCALIENTES PES       7836       1017411      512428
 6         1 AGUASCALIENTES PRD      14332       1017411      512428
 7         1 AGUASCALIENTES PRI      46521       1017411      512428
 8         1 AGUASCALIENTES PT       12134       1017411      512428
 9         1 AGUASCALIENTES PVEM     18379       1017411      512428
10         1 AGUASCALIENTES RSP       4223       1017411      512428
# ℹ 310 more rows
# ℹ 3 more variables: NUM_VOTOS_NULOS <dbl>, Votos1 <dbl>, Proporcion <dbl>
…
