3 Proceso Electoral 2016 – Ingresos de Legisladores
…
Mostrar el Código

table(integrantes2016$Partido)

    MC MORENA   NUAL   Otro    PAN    PRD    PRI     PT   PVEM 
    24     40     38     54     99     63    107     23     46 

Mostrar el Código

integrantes2016%>%
arrange((ID_ESTADO)) 

# A tibble: 494 × 4
   ID_ESTADO Partido Sexo    Curules
       <dbl> <chr>   <chr>     <dbl>
 1         1 PAN     Hombres       6
 2         1 PRI     Hombres       1
 3         1 PAN     Mujeres       5
 4         1 NUAL    Mujeres       2
 5         1 PRI     Mujeres       3
 6         1 PVEM    Mujeres       1
 7         1 MORENA  Hombres       1
 8         1 PAN     Hombres       1
 9         1 PRD     Hombres       1
10         1 NUAL    Hombres       1
# ℹ 484 more rows
…
reactable(df2016)

3.2 Proceso Electoral 2017:

Mostrar el Código

congreso2017 <- congreso_local_2016%>%
filter(Año==2017)%>%
  group_by(ID_ESTADO, NOMBRE_ESTADO, Partido)%>%
  reframe(Votos = sum(Votos))%>%
  arrange((ID_ESTADO))

print(congreso2017)

# A tibble: 57 × 4
   ID_ESTADO NOMBRE_ESTADO Partido    Votos
       <dbl> <chr>         <chr>      <dbl>
 1         5 COAHUILA      CAND_IND1    873
 2         5 COAHUILA      CAND_IND2   2018
 3         5 COAHUILA      CAND_IND3   1749
 4         5 COAHUILA      MC         14499
 5         5 COAHUILA      MORENA    134055
 6         5 COAHUILA      NUAL       30372
 7         5 COAHUILA      Otro      245251
 8         5 COAHUILA      PAN       364448
 9         5 COAHUILA      PES        11206
10         5 COAHUILA      PRD        37346
# ℹ 47 more rows
…
