4 Proceso Electoral 2018 – Ingresos de Legisladores
…
Mostrar el Código

library(readxl)
library(reactable)
options(scipen=999)
options(digits=2)

Mostrar el Código

Congreso_local_2018 <- read_excel("C:/Users/Eduardo/Documents/PC/SECCION1/DOCS/Tesis/BASE 2018.xlsx")
Congreso_local_2018

# A tibble: 584 × 52
     Año ID_ESTADO NOMBRE_ESTADO    PAN   PRI   PRD    PT  PVEM    MC  `NA`
   <dbl>     <dbl> <chr>          <dbl> <dbl> <dbl> <dbl> <dbl> <dbl> <dbl>
 1  2018         1 AGUASCALIENTES  6909  5815   432  1943  1505   887  2996
 2  2018         1 AGUASCALIENTES  6319  5435  1300  1398   605   598  1573
 3  2018         1 AGUASCALIENTES  4639  5463  5004   774  2984   482  1683
 4  2018         1 AGUASCALIENTES 10024  8980   561   718  2068   525  1019
 5  2018         1 AGUASCALIENTES  9562  4266   451   807  1367   719   849
 6  2018         1 AGUASCALIENTES 17793  6737   393   554   965   652   757
 7  2018         1 AGUASCALIENTES 11333  6235   374   661  1093   324   609
 8  2018         1 AGUASCALIENTES 10837  5534   698  1542   849   431  2016
 9  2018         1 AGUASCALIENTES 10452  6678   530  1020  1716   694   857
10  2018         1 AGUASCALIENTES 13947  6325   575   859  1389   787   889
# ℹ 574 more rows
# ℹ 42 more variables: MORENA <dbl>, Otro <dbl>, CAND_IND1 <dbl>,
#   CAND_IND2 <dbl>, CAND_IND3 <dbl>, CAND_IND4 <dbl>, CAND_IND5 <dbl>,
#   CAND_IND6 <dbl>, CAND_IND_7 <dbl>, CAND_IND8 <dbl>, CAND_IND9 <dbl>,
#   CAND_IND10 <dbl>, CAND_IND11 <dbl>, CAND_IND12 <dbl>, CAND_IND13 <dbl>,
#   CAND_IND14 <dbl>, CAND_IND15 <dbl>, CAND_IND16 <dbl>, CAND_IND17 <dbl>,
#   CAND_IND18 <dbl>, CAND_IND19 <dbl>, CAND_IND20 <dbl>, CAND_IND21 <dbl>, …
…
integrantes2018 <-  read_csv("C:/Users/Eduardo/Documents/PC/SECCION1/DOCS/Tesis/Integrantes/integrante2019.csv")

Rows: 416 Columns: 6
── Column specification ────────────────────────────────────────────────────────
Delimiter: ","
dbl (6): entidad, grupopar, legele1, legele2, legele4, legele5

ℹ Use `spec()` to retrieve the full column specification for this data.
ℹ Specify the column types or set `show_col_types = FALSE` to quiet this message.

Mostrar el Código

integrantes2018

# A tibble: 416 × 6
   entidad grupopar legele1 legele2 legele4 legele5
     <dbl>    <dbl>   <dbl>   <dbl>   <dbl>   <dbl>
 1       1        1       2       1       1       1
 2       1        2       6       6       0       0
 3       1        3       1       0       0       0
 4       1        4       0       0       0       0
 5       1        5       0       1       0       1
 6       1        6       0       1       0       0
 7       1        7       0       0       1       0
 8       1        8       0       0       1       3
 9       1        9       0       0       1       0
10       1       10       0       0       0       0
# ℹ 406 more rows
…
