8 Proceso Electoral 2015 – Ingresos de Legisladores
…
reactable(dipfed2015_1)

Mostrar el Código

dipfed2015_1 <- dipfed2015_1[!is.na(dipfed2015_1$Votos),]

Mostrar el Código

suma_F2015 <- dipfed2015_1%>%
            group_by(ID_ESTADO, NOMBRE_ESTADO)%>%
            reframe(Votos1 = sum(Votos))

suma_F2015

# A tibble: 32 × 3
   ID_ESTADO NOMBRE_ESTADO        Votos1
       <dbl> <chr>                 <dbl>
 1         1 AGUASCALIENTES       303043
 2         2 BAJA CALIFORNIA      704473
 3         3 BAJA CALIFORNIA SUR  233091
 4         4 CAMPECHE             353607
 5         5 COAHUILA             863418
 6         6 COLIMA               289397
 7         7 CHIAPAS             1424640
 8         8 CHIHUAHUA            780772
 9         9 DISTRITO FEDERAL    2937511
10        10 DURANGO              476239
# ℹ 22 more rows
…
