2 Proceso Electoral 2015 – Ingresos de Legisladores
…
integrantes2015 <- integrantes2015%>%
rename(Partido = gru_parl)

Mostrar el Código

integrantes2015 <- integrantes2015%>%
rename(ID_ESTADO = entidad)

Mostrar el Código

integrantes2015%>%
arrange((ID_ESTADO)) 

# A tibble: 475 × 4
   ID_ESTADO Partido Sexo    Curules
       <dbl> <chr>   <chr>     <dbl>
 1         1 PAN     Hombres       6
 2         1 PRI     Hombres       1
 3         1 PAN     Mujeres       5
 4         1 NUAL    Mujeres       2
 5         1 PRI     Mujeres       4
 6         1 PVEM    Mujeres       1
 7         1 MORENA  Hombres       1
 8         1 PAN     Hombres       1
 9         1 PRD     Hombres       1
10         1 NUAL    Hombres       1
# ℹ 465 more rows
…
